{
  "_class": "group",
  "do_objectID": "45BAA9E5-9492-4367-998B-384C15AA7304",
  "exportOptions": {
    "_class": "exportOptions",
    "exportFormats": [
    ],
    "includedLayerIds": [
    ],
    "layerOptions": 0,
    "shouldTrim": false
  },
  "frame": {
    "_class": "rect",
    "constrainProportions": false,
    "height": 82,
    "width": 1295,
    "x": 344,
    "y": 71
  },
  "hasClickThrough": false,
  "isFlippedHorizontal": false,
  "isFlippedVertical": false,
  "isLocked": false,
  "isVisible": true,
  "layerListExpandedType": 0,
  "layers": [
    {
      "class": "shapeGroup",
      "id": "64C5EBE2-0D9F-459C-B125-69372C383BEC"
    },
    {
      "class": "shapeGroup",
      "id": "FBE1D0AC-8E72-4CBA-9B6F-5C06CE68EB53"
    },
    {
      "class": "symbolInstance",
      "id": "AF898DD0-2D70-4DC2-9F7F-DB88CA61BA33"
    },
    {
      "class": "symbolInstance",
      "id": "8537EB4B-013B-44AB-9011-04444F43DED9"
    },
    {
      "class": "symbolInstance",
      "id": "6B21484E-EC5D-4121-8045-4437455DC942"
    },
    {
      "class": "symbolInstance",
      "id": "7D00F23D-D43F-4221-91A1-B047798C2A09"
    },
    {
      "class": "shapeGroup",
      "id": "B8E0D9B6-3182-4CA9-8D3B-D9D69BC3FA00"
    },
    {
      "class": "symbolInstance",
      "id": "559883BC-94F1-4CB4-AD14-3250AFC73490"
    },
    {
      "class": "symbolInstance",
      "id": "3CC8E21A-FE4E-48A1-A771-04E67C3DC606"
    },
    {
      "class": "symbolInstance",
      "id": "614CB67B-D231-40A2-A7FE-7E32B8B85475"
    },
    {
      "class": "symbolInstance",
      "id": "65381BC9-D8D1-472B-B318-22A9E981D7C7"
    },
    {
      "class": "symbolInstance",
      "id": "665EBD59-FAD7-4B44-B85D-A3516B1BD8B8"
    },
    {
      "class": "symbolInstance",
      "id": "351C1526-6DB2-4D0D-A1F0-76DB1A923AF1"
    },
    {
      "class": "symbolInstance",
      "id": "3752E4D3-6FF5-4213-89FD-72F870AF2A87"
    },
    {
      "class": "symbolInstance",
      "id": "8352538E-AE0C-4E9B-8934-2860411CDD77"
    },
    {
      "class": "symbolInstance",
      "id": "F74479A0-0B03-4B0E-831C-AFC1A606FF6B"
    },
    {
      "class": "symbolInstance",
      "id": "82CFFF85-BC30-43A6-AA25-20051CF544BE"
    },
    {
      "class": "symbolInstance",
      "id": "68AE07D3-2B80-4A9B-ABA4-827811E80A5A"
    },
    {
      "class": "symbolInstance",
      "id": "CA0E8C37-ECE4-4440-8379-621F01539B29"
    },
    {
      "class": "symbolInstance",
      "id": "8927C678-474A-494D-861D-8026AE78C57A"
    },
    {
      "class": "symbolInstance",
      "id": "19026E8F-A6B6-4592-BE04-B17FFFFCF240"
    },
    {
      "class": "symbolInstance",
      "id": "58D12645-D61D-404A-AA17-24EFDF6098F9"
    },
    {
      "class": "symbolInstance",
      "id": "3499ECA3-5192-4856-A38B-9602FEF80E73"
    },
    {
      "class": "symbolInstance",
      "id": "49BD357A-9DFE-45FA-8615-AF63672B40C1"
    },
    {
      "class": "symbolInstance",
      "id": "4CF31008-95F7-42EF-9656-5E4F1D8A7892"
    },
    {
      "class": "symbolInstance",
      "id": "583CD1B7-A8E5-4FFA-9C69-A1E2FD3BBD91"
    },
    {
      "class": "symbolInstance",
      "id": "A79D3CEC-95F1-43C7-94A7-A7C2212274D1"
    },
    {
      "class": "symbolInstance",
      "id": "1AAC752D-DBD3-4328-9C7C-C551E9922959"
    },
    {
      "class": "symbolInstance",
      "id": "E63179F4-CB11-4D06-A76C-40FB2786EAB8"
    },
    {
      "class": "symbolInstance",
      "id": "F02BAB24-E05A-400E-9537-638C32C5F656"
    },
    {
      "class": "symbolInstance",
      "id": "D6E9E704-4F5D-4695-BB50-86803FEB58E9"
    },
    {
      "class": "symbolInstance",
      "id": "19A7B821-2EB7-4933-BC50-5F67FACA364D"
    },
    {
      "class": "symbolInstance",
      "id": "84A02E01-EF24-4BDB-B6AB-9D56E76FD89E"
    },
    {
      "class": "symbolInstance",
      "id": "0E2D1E7C-6B29-43E6-BCAA-EFC10D72B3E3"
    },
    {
      "class": "symbolInstance",
      "id": "9D65F5A6-1EF9-4F3C-AACA-882F71C8A30A"
    },
    {
      "class": "symbolInstance",
      "id": "BD91C486-9B11-459C-8977-A5E480ABD107"
    },
    {
      "class": "symbolInstance",
      "id": "18A66AA5-F331-4AB7-9B0C-2FC0C9AEE26E"
    },
    {
      "class": "symbolInstance",
      "id": "960CD0A8-C801-4B82-9855-5B96FF4461CE"
    },
    {
      "class": "symbolInstance",
      "id": "84A3F756-54C3-49A2-9BEA-678EF53EC203"
    },
    {
      "class": "symbolInstance",
      "id": "9C1E6B05-E289-470E-A639-5BD4B8117298"
    },
    {
      "class": "symbolInstance",
      "id": "47A7227C-324B-40BB-BA40-89EDFB917596"
    },
    {
      "class": "symbolInstance",
      "id": "8953993B-3680-4ED6-BBD7-91BF1AD9FA7B"
    },
    {
      "class": "symbolInstance",
      "id": "2C9EB02D-A006-4C07-AB33-6413561D28FF"
    },
    {
      "class": "symbolInstance",
      "id": "A2B67200-05CC-469F-8640-3EA11519A76E"
    },
    {
      "class": "symbolInstance",
      "id": "3A023117-BC7D-46D8-97C0-B643D07884FB"
    },
    {
      "class": "symbolInstance",
      "id": "F6E243D0-F1F0-42C6-BDD0-428408BC8524"
    },
    {
      "class": "symbolInstance",
      "id": "857CEC9C-DBE1-4285-8F53-A69672EA4901"
    },
    {
      "class": "symbolInstance",
      "id": "57640A6D-C12A-46E0-BC83-6A5A620FE906"
    },
    {
      "class": "symbolInstance",
      "id": "E912BE23-1F0E-4733-89E9-9A4C25E62721"
    },
    {
      "class": "symbolInstance",
      "id": "721BAEDC-E1CD-4F99-89AD-14E80DF94163"
    },
    {
      "class": "symbolInstance",
      "id": "3601588B-6FF6-4B55-9E1A-C27690325C6E"
    },
    {
      "class": "symbolInstance",
      "id": "8832C975-5467-4FEA-B1E1-4D5D6592BEBD"
    },
    {
      "class": "symbolInstance",
      "id": "8DA2B964-8F02-4DAD-BC49-B6D9101D7F95"
    },
    {
      "class": "symbolInstance",
      "id": "88F80A27-4605-44CF-90F9-9178711AB2D2"
    },
    {
      "class": "symbolInstance",
      "id": "B7B8A665-2E9B-45F9-B62F-92DC4058D86B"
    },
    {
      "class": "symbolInstance",
      "id": "D6477404-FF47-4E0D-87CF-FD3B5A6901B7"
    },
    {
      "class": "symbolInstance",
      "id": "928F0102-1602-4633-B364-F37FE9C42CEC"
    },
    {
      "class": "symbolInstance",
      "id": "C0508193-0CE1-4EED-88E4-A3027A4BBD15"
    },
    {
      "class": "symbolInstance",
      "id": "DAD19DAE-91C2-4990-A515-D7FF6A8D37F7"
    },
    {
      "class": "symbolInstance",
      "id": "CBD82316-9E51-4FCC-8B53-2751828023E7"
    },
    {
      "class": "symbolInstance",
      "id": "B7AC6714-022C-4058-B460-9C47F817FF96"
    }
  ],
  "name": "timeline",
  "nameIsFixed": true,
  "resizingConstraint": 63,
  "resizingType": 0,
  "rotation": 0,
  "shouldBreakMaskChain": false,
  "style": {
    "_class": "style",
    "endDecorationType": 0,
    "miterLimit": 10,
    "startDecorationType": 0
  }
}