{
  "_class": "shapePath",
  "booleanOperation": -1,
  "do_objectID": "2D94CF72-5C6F-4146-A816-4AAB6BBC928D",
  "edited": true,
  "exportOptions": {
    "_class": "exportOptions",
    "exportFormats": [
    ],
    "includedLayerIds": [
    ],
    "layerOptions": 0,
    "shouldTrim": false
  },
  "frame": {
    "_class": "rect",
    "constrainProportions": false,
    "height": 9,
    "width": 6,
    "x": 0,
    "y": 3
  },
  "isFlippedHorizontal": false,
  "isFlippedVertical": false,
  "isLocked": false,
  "isVisible": true,
  "layerListExpandedType": 0,
  "name": "Path",
  "nameIsFixed": false,
  "path": {
    "_class": "path",
    "isClosed": true,
    "pointRadiusBehaviour": 1,
    "points": [
      {
        "_class": "curvePoint",
        "cornerRadius": 0,
        "curveFrom": "{0.57828218947640919, 0.031776645994559871}",
        "curveMode": 4,
        "curveTo": "{0.56966667371414281, 0.019771605226269529}",
        "hasCurveFrom": false,
        "hasCurveTo": true,
        "point": "{0.57828218947640919, 0.031776645994559871}"
      },
      {
        "_class": "curvePoint",
        "cornerRadius": 0,
        "curveFrom": "{1.0691478155572793, 0.71575912777033068}",
        "curveMode": 4,
        "curveTo": "{0.95584272938558401, 0.55787743893362673}",
        "hasCurveFrom": true,
        "hasCurveTo": false,
        "point": "{0.95584272938558401, 0.55787743893362673}"
      },
      {
        "_class": "curvePoint",
        "cornerRadius": 0,
        "curveFrom": "{0.64059449449528794, 0.99058910439140946}",
        "curveMode": 3,
        "curveTo": "{0.95688435702236652, 0.90134230341054433}",
        "hasCurveFrom": true,
        "hasCurveTo": true,
        "point": "{0.70509527664082106, 0.9723890633870611}"
      },
      {
        "_class": "curvePoint",
        "cornerRadius": 0,
        "curveFrom": "{0.22382998755489694, 1}",
        "curveMode": 3,
        "curveTo": "{0.5706688993824508, 1}",
        "hasCurveFrom": true,
        "hasCurveTo": true,
        "point": "{0.49993826984965145, 1}"
      },
      {
        "_class": "curvePoint",
        "cornerRadius": 0,
        "curveFrom": "{0, 0.6421680818542439}",
        "curveMode": 3,
        "curveTo": "{3.8152065902780813e-17, 0.85964976561368112}",
        "hasCurveFrom": true,
        "hasCurveTo": true,
        "point": "{0, 0.68651897755710634}"
      },
      {
        "_class": "curvePoint",
        "cornerRadius": 0,
        "curveFrom": "{0.044033810313718773, 0.55787743893362673}",
        "curveMode": 4,
        "curveTo": "{0.015008458348228801, 0.59832197449884539}",
        "hasCurveFrom": false,
        "hasCurveTo": true,
        "point": "{0.044033810313718773, 0.55787743893362673}"
      },
      {
        "_class": "curvePoint",
        "cornerRadius": 0,
        "curveFrom": "{0.44106501864621578, 0.0046458073242164272}",
        "curveMode": 4,
        "curveTo": "{0.42159435022289338, 0.031776645994559968}",
        "hasCurveFrom": true,
        "hasCurveTo": false,
        "point": "{0.42159435022289338, 0.031776645994559968}"
      },
      {
        "_class": "curvePoint",
        "cornerRadius": 0,
        "curveFrom": "{0.55433862426450642, 0.010160313386234441}",
        "curveMode": 3,
        "curveTo": "{0.49192488162986453, -0.0074508323611507761}",
        "hasCurveFrom": true,
        "hasCurveTo": true,
        "point": "{0.53519303368169224, 0.0047580450405037868}"
      }
    ]
  },
  "resizingConstraint": 63,
  "resizingType": 0,
  "rotation": 0,
  "shouldBreakMaskChain": false
}